ajax-loader.gif
icon-100.gif
icon-102.gif
icon-104.svg
icon-1058.png
icon-105.gif
icon-1064.gif
icon-1066.png
icon-1067.png
icon-1068.png
icon-1069.svg
icon-1070.png
icon-1071.png
icon-1072.gif
icon-1073.png
icon-1075.png
icon-107.gif
icon-1085.jpg
icon-1086.jpg
icon-1087.jpg
icon-1088.jpg
icon-1089.jpg
icon-108.gif
icon-1090.jpg
icon-1091.jpg
icon-1092.jpg
icon-1093.jpg
icon-1094.jpg
icon-109.gif
icon-110.gif
icon-111.gif
icon-112.gif
icon-1133.png
icon-1135.png
icon-114.gif
icon-115.gif
icon-116.gif
icon-1179.png
icon-117.gif
icon-1180.png
icon-1185.png
icon-1187.png
icon-118.gif
icon-119.png
icon-1203.png
icon-1208.png
icon-120.gif
icon-1210.png
icon-1211.png
icon-1221.png
icon-1223.png
icon-122.png
icon-123.gif
icon-124.png
icon-125.gif
icon-126.svg
icon-127.gif
icon-129.gif
icon-131.gif
icon-132.gif
icon-134.gif
icon-135.gif
icon-136.gif
icon-137.gif
icon-138.gif
icon-139.png
icon-141.gif
icon-142.png
icon-144.png
icon-145.png
icon-1468.gif
icon-1469.png
icon-146.png
icon-1470.gif
icon-1471.gif
icon-147.png
icon-148.gif
icon-1490.gif
icon-149.png
icon-150.png
icon-151.gif
icon-152.png
icon-155.gif
icon-156.gif
icon-157.gif
icon-1584.svg
icon-158.gif
icon-159.gif
icon-160.gif
icon-161.gif
icon-162.gif
icon-1633.png
icon-1634.svg
icon-1635.png
icon-163.gif
icon-1644.png
icon-1645.gif
icon-1646.png
icon-1647.png
icon-164.gif
icon-165.gif
icon-166.gif
icon-167.gif
icon-1682.lu
icon-168.gif
icon-1697.png
icon-169.png
icon-16.gif
icon-1704.png
icon-170.png
icon-1714.png
icon-1718.png
icon-171.png
icon-1720.png
icon-1728.png
icon-1729.png
icon-172.png
icon-1730.svg
icon-1732.svg
icon-173.png
icon-174.png
icon-1752.gif
icon-1759.svg
icon-1760.svg
icon-1761.png
icon-1762.svg
icon-1763.svg
icon-1764.png
icon-1765.svg
icon-1766.svg
icon-1767.svg
icon-177.gif
icon-1785.sk
icon-1789.sk
icon-178.png
icon-179.gif
icon-1803.png
icon-1815.png
icon-181.png
icon-1821.png
icon-1822.png
icon-182.png
icon-183.png
icon-184.gif
icon-185.png
icon-186.png
icon-187.gif
icon-188.gif
icon-189.gif
icon-190.gif
icon-191.png
icon-192.gif
icon-193.png
icon-1945.gif
icon-194.gif
icon-195.png
icon-196.gif
icon-1972.svg
icon-1973.svg
icon-1974.svg
icon-1975.svg
icon-1976.gif
icon-1977.gif
icon-1978.svg
icon-1979.svg
icon-197.gif
icon-1980.svg
icon-1981.svg
icon-1982.svg
icon-1983.svg
icon-1984.png
icon-1985.svg
icon-1986.svg
icon-1987.svg
icon-1988.png
icon-198.png
icon-1992.gif
icon-199.png
icon-2003.png
icon-2004.png
icon-202.png
icon-204.png
icon-2067.png
icon-2068.png
icon-206.png
icon-2070.png
icon-2107.png
icon-2111.svg
icon-2117.png
icon-2124.png
icon-2129.gif
icon-2137.png
icon-2138.png
icon-2140.gif
icon-2197.gif
icon-222.png
icon-223.png
icon-2328.png
icon-2331.png
icon-2385.gif
icon-2386.png
icon-2387.png
icon-2388.png
icon-2389.png
icon-2390.png
icon-2392.gif
icon-2393.png
icon-2394.png
icon-2395.png
icon-2396.png
icon-2397.png
icon-2399.png
icon-23.gif
icon-2400.png
icon-2401.png
icon-2402.png
icon-2403.png
icon-2410.png
icon-2411.png
icon-2412.png
icon-2413.png
icon-2414.png
icon-2415.png
icon-2416.png
icon-2417.png
icon-2418.png
icon-2419.png
icon-2420.png
icon-2421.png
icon-2425.png
icon-2426.png
icon-242.png
icon-2454.png
icon-2456.png
icon-2457.png
icon-2458.png
icon-2459.png
icon-245.png
icon-2460.png
icon-2461.png
icon-2462.png
icon-2463.png
icon-2464.png
icon-2465.png
icon-2466.png
icon-2467.png
icon-247.png
icon-2489.png
icon-2494.png
icon-2495.png
icon-2496.png
icon-2497.png
icon-2498.png
icon-2499.png
icon-2500.gif
icon-2501.png
icon-252.png
icon-253.png
icon-2547.png
icon-2548.png
icon-2549.png
icon-2550.png
icon-2551.png
icon-2552.png
icon-2553.png
icon-2554.png
icon-2555.png
icon-2556.png
icon-2557.png
icon-2558.png
icon-2559.png
icon-2560.png
icon-2563.png
icon-2564.png
icon-2565.png
icon-2566.png
icon-2567.png
icon-2568.png
icon-2569.png
icon-2570.png
icon-2571.png
icon-2572.png
icon-2573.png
icon-2574.png
icon-2575.png
icon-2576.png
icon-2577.png
icon-2578.png
icon-2579.png
icon-2580.png
icon-2618.png
icon-2646.gif
icon-2647.gif
icon-2648.gif
icon-2649.gif
icon-2650.gif
icon-2651.gif
icon-2652.gif
icon-2653.gif
icon-2654.gif
icon-2655.gif
icon-2656.gif
icon-2657.gif
icon-2658.gif
icon-2659.gif
icon-2660.gif
icon-2661.gif
icon-2662.gif
icon-2663.gif
icon-2664.gif
icon-2665.gif
icon-2666.gif
icon-2667.gif
icon-2669.png
icon-2670.png
icon-2671.png
icon-2672.png
icon-2673.png
icon-2686.png
icon-2687.png
icon-2688.gif
icon-2689.png
icon-2732.svg
icon-2786.gif
icon-2787.png
icon-2788.jpg
icon-2789.png
icon-2790.jpg
icon-2791.gif
icon-2792.jpg
icon-2793.gif
icon-2794.png
icon-2795.jpg
icon-2796.gif
icon-2797.png
icon-2798.gif
icon-2844.jpeg
icon-2846.png
icon-2854.png
icon-2855.png
icon-2857.png
icon-2858.png
icon-2863.gif
icon-2864.gif
icon-2865.gif
icon-2866.png&sa=X&ei=_YJkVcbsK_Pe7AbYrIKIBg&ved=0CAkQ8wc&usg=AFQjCNGkcGcfn4wk9GOO9YiI8QmcWgyDpg
icon-2868.png
icon-2869.png
icon-2870.png&sa=X&ei=0oRkVY6uLaeS7Aa5o4O4BA&ved=0CAkQ8wc&usg=AFQjCNFfYtlWRuniiqiKnqPy2WCuIpsIlw
icon-2871.png&sa=X&ei=0oRkVY6uLaeS7Aa5o4O4BA&ved=0CAkQ8wc&usg=AFQjCNFfYtlWRuniiqiKnqPy2WCuIpsIlw
icon-2872.png&sa=X&ei=0oRkVY6uLaeS7Aa5o4O4BA&ved=0CAkQ8wc&usg=AFQjCNFfYtlWRuniiqiKnqPy2WCuIpsIlw
icon-2873.png
icon-2875.png
icon-2876.png
icon-2885.png
icon-2888.gif
icon-2889.gif
icon-2890.gif
icon-2891.gif
icon-2892.gif
icon-2893.gif
icon-2894.gif
icon-2895.gif
icon-2896.gif
icon-2897.gif
icon-2898.gif
icon-2899.gif
icon-2900.gif
icon-2901.gif
icon-2902.gif
icon-2903.gif
icon-2904.gif
icon-2905.gif
icon-2906.gif
icon-2907.gif
icon-2908.gif
icon-2909.gif
icon-2910.gif
icon-2911.gif
icon-2912.gif
icon-2913.gif
icon-2914.gif
icon-2915.gif
icon-2916.gif
icon-2917.gif
icon-2918.gif
icon-2919.gif
icon-2920.gif
icon-2921.gif
icon-2922.gif
icon-2923.gif
icon-2924.gif
icon-2925.gif
icon-2926.gif
icon-2927.gif
icon-2928.gif
icon-2929.gif
icon-2930.gif
icon-2931.gif
icon-2932.gif
icon-2933.gif
icon-2934.gif
icon-2935.gif
icon-2936.gif
icon-2937.gif
icon-2938.gif
icon-2939.gif
icon-2940.gif
icon-2941.gif
icon-2949.svg
icon-2950.svg
icon-2951.png
icon-2952.png
icon-2953.svg
icon-2954.jpg
icon-2956.png
icon-2957.png
icon-2958.png
icon-2959.png
icon-2960.png
icon-2961.png
icon-2962.png
icon-2964.png
icon-2965.png
icon-2966.png
icon-2967.png
icon-2972.svg
icon-2984.png
icon-2987.png
icon-2988.png
icon-2989.png
icon-2990.png
icon-2991.png
icon-2992.png
icon-2993.png
icon-2994.png
icon-2995.png
icon-2996.png
icon-2997.png
icon-2998.png
icon-2999.png
icon-29.gif
icon-3000.png
icon-3001.png
icon-3002.png
icon-3003.png
icon-3004.png
icon-3005.png
icon-3006.png
icon-3007.png
icon-3008.png
icon-3094.png
icon-3095.png
icon-3096.png
icon-3097.png
icon-3098.png
icon-3100.png
icon-3101.png
icon-3102.png
icon-3103.png
icon-3104.png
icon-3107.svg
icon-3117.jpg
icon-3118.png
icon-3119.png
icon-3121.png
icon-3130.gif
icon-3177.png
icon-3178.png
icon-3179.png
icon-3180.jpg
icon-3181.jpg
icon-3182.jpg
icon-3183.jpg
icon-3184.jpg
icon-3185.jpg
icon-3187.jpg
icon-3189.jpg
icon-3190.jpg
icon-3191.jpg
icon-3192.jpg
icon-3193.jpg
icon-3194.jpg
icon-3195.jpg
icon-3196.png
icon-3197.png
icon-3198.png
icon-3199.png
icon-31.gif
icon-3200.png
icon-3201.png
icon-3202.png
icon-3203.svg
icon-3204.png
icon-3205.png
icon-320.png
icon-352.gif
icon-353.gif
icon-354.gif
icon-355.png
icon-356.png
icon-357.gif
icon-358.gif
icon-360.png
icon-362.gif
icon-363.gif
icon-364.png
icon-365.gif
icon-366.png
icon-367.png
icon-368.png
icon-369.gif
icon-36.gif
icon-370.png
icon-371.png
icon-372.gif
icon-373.png
icon-374.png
icon-376.png
icon-377.png
icon-378.gif
icon-379.gif
icon-37.gif
icon-380.png
icon-381.png
icon-382.gif
icon-383.gif
icon-386.png
icon-387.png
icon-38.png
icon-392.png
icon-393.png
icon-396.png
icon-397.png
icon-398.png
icon-407.gif
icon-409.jpg
icon-40.gif
icon-417.png
icon-4196.png
icon-4197.jpg
icon-4198.png
icon-4199.png
icon-4200.png
icon-4201.png
icon-4202.png
icon-4203.gif
icon-4243.png
icon-4244.png
icon-4250.svg
icon-4251.svg
icon-4252.svg
icon-4253.svg
icon-428.png
icon-433.png
icon-434.png
icon-4356.png
icon-441.png
icon-445.png
icon-450.png
icon-452.png
icon-453.png
icon-455.png
icon-457.png
icon-529.png
icon-531.png
icon-532.svg
icon-537.png
icon-545.png
icon-54.gif
icon-554.png
icon-55.gif
icon-564.png
icon-580.gif
icon-599.svg
icon-628.png
icon-649.PNG
icon-650.jpg
icon-651.jpg
icon-652.gif
icon-653.gif
icon-654.jpg
icon-655.JPG
icon-656.JPG
icon-657.JPG
icon-658.gif
icon-659.jpg
icon-65.gif
icon-660.jpg
icon-662.gif
icon-663.GIF
icon-664.gif
icon-665.jpg
icon-66.png
icon-677.png
icon-69.gif
icon-6.gif
icon-725.png
icon-726.png
icon-727.png
icon-734.png
icon-735.png
icon-736.png
icon-737.png
icon-73.gif
icon-749.png
icon-74.gif
icon-750.png
icon-751.png
icon-752.png
icon-753.png
icon-754.png
icon-755.png
icon-756.png
icon-757.png
icon-758.png
icon-759.png
icon-75.png
icon-760.png
icon-761.png
icon-762.png
icon-763.png
icon-764.png
icon-765.png
icon-76.gif
icon-78.png
icon-79.gif
icon-7.gif
icon-80.gif
icon-81.gif
icon-83.gif
icon-844.png
icon-845.png
icon-846.png
icon-847.png
icon-848.png
icon-849.png
icon-856.gif
icon-85.gif
icon-87.gif
icon-91.gif
icon-93.gif
icon-947.png
icon-95.gif
icon-969.gif
icon-970.gif
icon-971.gif
icon-972.gif
icon-973.gif
icon-974.gif
icon-975.gif
icon-976.gif
icon-977.gif
icon-978.gif
icon-979.gif
icon-980.gif
icon-981.gif
icon-982.gif
icon-983.gif
icon-984.gif
icon-98.gif
icon-99.gif
icon-9.gif
